%YAML 1.1
%TAG !u! tag:unity3d.com,2011:
--- !u!114 &11400000
MonoBehaviour:
  m_ObjectHideFlags: 0
  m_CorrespondingSourceObject: {fileID: 0}
  m_PrefabInstance: {fileID: 0}
  m_PrefabAsset: {fileID: 0}
  m_GameObject: {fileID: 0}
  m_Enabled: 1
  m_EditorHideFlags: 0
  m_Script: {fileID: 11500000, guid: 5cb50e51b6a5fb54593a73abea9f956f, type: 3}
  m_Name: 81D7A85C-3195-40DB-BB14-7481070D8240
  m_EditorClassIdentifier: 
  objectName: Master
  id: 4056684167
  guid: 81D7A85C-3195-40DB-BB14-7481070D8240
