%YAML 1.1
%TAG !u! tag:unity3d.com,2011:
--- !u!114 &11400000
MonoBehaviour:
  m_ObjectHideFlags: 0
  m_CorrespondingSourceObject: {fileID: 0}
  m_PrefabInstance: {fileID: 0}
  m_PrefabAsset: {fileID: 0}
  m_GameObject: {fileID: 0}
  m_Enabled: 1
  m_EditorHideFlags: 0
  m_Script: {fileID: 11500000, guid: 912bdcc817ed45c47acd5fc93ee0af34, type: 3}
  m_Name: 5E67F5CD-C69E-4A7C-9C72-2979279409A6
  m_EditorClassIdentifier: 
  objectName: insect
  id: 3534600765
  guid: 5E67F5CD-C69E-4A7C-9C72-2979279409A6
