%YAML 1.1
%TAG !u! tag:unity3d.com,2011:
--- !u!114 &11400000
MonoBehaviour:
  m_ObjectHideFlags: 0
  m_CorrespondingSourceObject: {fileID: 0}
  m_PrefabInstance: {fileID: 0}
  m_PrefabAsset: {fileID: 0}
  m_GameObject: {fileID: 0}
  m_Enabled: 1
  m_EditorHideFlags: 0
  m_Script: {fileID: 11500000, guid: 2866b246301cffa47b682a4024ab1b29, type: 3}
  m_Name: AkWwiseProjectData
  m_EditorClassIdentifier: 
  AcousticTextureWwu:
  - PhysicalPath: Virtual Acoustics\Default Work Unit.wwu
    PathAndIcons:
    - ElementName: Virtual Acoustics
      ObjectType: 5
      guid: 00000000000000000000000000000000
    - ElementName: Default Work Unit
      ObjectType: 12
      guid: 53d894a7b395924eafba6a1a0edc936d
    ParentPath: Virtual Acoustics\Default Work Unit
    guid: 53d894a7b395924eafba6a1a0edc936d
    GuidInternal: 
    m_lastTime: -8585456056790496958
    List: []
  AuxBusWwu:
  - PhysicalPath: Master-Mixer Hierarchy\Default Work Unit.wwu
    PathAndIcons:
    - ElementName: Master-Mixer Hierarchy
      ObjectType: 5
      guid: 00000000000000000000000000000000
    - ElementName: Default Work Unit
      ObjectType: 12
      guid: a0291565a7478b43b182d684c80ac2c8
    ParentPath: Master-Mixer Hierarchy\Default Work Unit
    guid: a0291565a7478b43b182d684c80ac2c8
    GuidInternal: 
    m_lastTime: -8585453240681303263
    List:
    - name: Ambients
      guid: 7022618d036f6149965e299c63159162
      id: 4095160042
      PathAndIcons:
      - ElementName: Master-Mixer Hierarchy
        ObjectType: 5
        guid: 00000000000000000000000000000000
      - ElementName: Default Work Unit
        ObjectType: 12
        guid: a0291565a7478b43b182d684c80ac2c8
      - ElementName: Master Audio Bus
        ObjectType: 2
        guid: d8a41415a61d2a41a17e75ca0c2149f3
      - ElementName: SFX
        ObjectType: 2
        guid: 4c5fd943ea827d4ea7354e84ca413c23
      - ElementName: Ambients
        ObjectType: 2
        guid: 7022618d036f6149965e299c63159162
      Path: Master-Mixer Hierarchy\Default Work Unit\Master Audio Bus\SFX\Ambients
    - name: Breathing
      guid: 72e6519a52bba14ba83f7b28f1db1da5
      id: 238653005
      PathAndIcons:
      - ElementName: Master-Mixer Hierarchy
        ObjectType: 5
        guid: 00000000000000000000000000000000
      - ElementName: Default Work Unit
        ObjectType: 12
        guid: a0291565a7478b43b182d684c80ac2c8
      - ElementName: Master Audio Bus
        ObjectType: 2
        guid: d8a41415a61d2a41a17e75ca0c2149f3
      - ElementName: SFX
        ObjectType: 2
        guid: 4c5fd943ea827d4ea7354e84ca413c23
      - ElementName: Character
        ObjectType: 2
        guid: d217b7150a324742abd0d7a0e85d234c
      - ElementName: Breathing
        ObjectType: 2
        guid: 72e6519a52bba14ba83f7b28f1db1da5
      Path: Master-Mixer Hierarchy\Default Work Unit\Master Audio Bus\SFX\Character\Breathing
    - name: Character
      guid: d217b7150a324742abd0d7a0e85d234c
      id: 436743010
      PathAndIcons:
      - ElementName: Master-Mixer Hierarchy
        ObjectType: 5
        guid: 00000000000000000000000000000000
      - ElementName: Default Work Unit
        ObjectType: 12
        guid: a0291565a7478b43b182d684c80ac2c8
      - ElementName: Master Audio Bus
        ObjectType: 2
        guid: d8a41415a61d2a41a17e75ca0c2149f3
      - ElementName: SFX
        ObjectType: 2
        guid: 4c5fd943ea827d4ea7354e84ca413c23
      - ElementName: Character
        ObjectType: 2
        guid: d217b7150a324742abd0d7a0e85d234c
      Path: Master-Mixer Hierarchy\Default Work Unit\Master Audio Bus\SFX\Character
    - name: Footstep
      guid: d5e88d52abb15e4f930544044cddd3f5
      id: 1866025847
      PathAndIcons:
      - ElementName: Master-Mixer Hierarchy
        ObjectType: 5
        guid: 00000000000000000000000000000000
      - ElementName: Default Work Unit
        ObjectType: 12
        guid: a0291565a7478b43b182d684c80ac2c8
      - ElementName: Master Audio Bus
        ObjectType: 2
        guid: d8a41415a61d2a41a17e75ca0c2149f3
      - ElementName: SFX
        ObjectType: 2
        guid: 4c5fd943ea827d4ea7354e84ca413c23
      - ElementName: Character
        ObjectType: 2
        guid: d217b7150a324742abd0d7a0e85d234c
      - ElementName: Footstep
        ObjectType: 2
        guid: d5e88d52abb15e4f930544044cddd3f5
      Path: Master-Mixer Hierarchy\Default Work Unit\Master Audio Bus\SFX\Character\Footstep
    - name: Indoor
      guid: 57f49c7122ebc64b864f27759bde69a5
      id: 340398852
      PathAndIcons:
      - ElementName: Master-Mixer Hierarchy
        ObjectType: 5
        guid: 00000000000000000000000000000000
      - ElementName: Default Work Unit
        ObjectType: 12
        guid: a0291565a7478b43b182d684c80ac2c8
      - ElementName: Master Audio Bus
        ObjectType: 2
        guid: d8a41415a61d2a41a17e75ca0c2149f3
      - ElementName: SFX
        ObjectType: 2
        guid: 4c5fd943ea827d4ea7354e84ca413c23
      - ElementName: Ambients
        ObjectType: 2
        guid: 7022618d036f6149965e299c63159162
      - ElementName: Indoor
        ObjectType: 2
        guid: 57f49c7122ebc64b864f27759bde69a5
      Path: Master-Mixer Hierarchy\Default Work Unit\Master Audio Bus\SFX\Ambients\Indoor
    - name: Master Audio Bus
      guid: d8a41415a61d2a41a17e75ca0c2149f3
      id: 3803692087
      PathAndIcons:
      - ElementName: Master-Mixer Hierarchy
        ObjectType: 5
        guid: 00000000000000000000000000000000
      - ElementName: Default Work Unit
        ObjectType: 12
        guid: a0291565a7478b43b182d684c80ac2c8
      - ElementName: Master Audio Bus
        ObjectType: 2
        guid: d8a41415a61d2a41a17e75ca0c2149f3
      Path: Master-Mixer Hierarchy\Default Work Unit\Master Audio Bus
    - name: Music
      guid: 5093b45fd0e26f43867088f8588f8616
      id: 3991942870
      PathAndIcons:
      - ElementName: Master-Mixer Hierarchy
        ObjectType: 5
        guid: 00000000000000000000000000000000
      - ElementName: Default Work Unit
        ObjectType: 12
        guid: a0291565a7478b43b182d684c80ac2c8
      - ElementName: Master Audio Bus
        ObjectType: 2
        guid: d8a41415a61d2a41a17e75ca0c2149f3
      - ElementName: Music
        ObjectType: 2
        guid: 5093b45fd0e26f43867088f8588f8616
      Path: Master-Mixer Hierarchy\Default Work Unit\Master Audio Bus\Music
    - name: Outdoor
      guid: e6633935c7032343b2b3d11b0c9b9e78
      id: 144697359
      PathAndIcons:
      - ElementName: Master-Mixer Hierarchy
        ObjectType: 5
        guid: 00000000000000000000000000000000
      - ElementName: Default Work Unit
        ObjectType: 12
        guid: a0291565a7478b43b182d684c80ac2c8
      - ElementName: Master Audio Bus
        ObjectType: 2
        guid: d8a41415a61d2a41a17e75ca0c2149f3
      - ElementName: SFX
        ObjectType: 2
        guid: 4c5fd943ea827d4ea7354e84ca413c23
      - ElementName: Ambients
        ObjectType: 2
        guid: 7022618d036f6149965e299c63159162
      - ElementName: Outdoor
        ObjectType: 2
        guid: e6633935c7032343b2b3d11b0c9b9e78
      Path: Master-Mixer Hierarchy\Default Work Unit\Master Audio Bus\SFX\Ambients\Outdoor
    - name: SFX
      guid: 4c5fd943ea827d4ea7354e84ca413c23
      id: 393239870
      PathAndIcons:
      - ElementName: Master-Mixer Hierarchy
        ObjectType: 5
        guid: 00000000000000000000000000000000
      - ElementName: Default Work Unit
        ObjectType: 12
        guid: a0291565a7478b43b182d684c80ac2c8
      - ElementName: Master Audio Bus
        ObjectType: 2
        guid: d8a41415a61d2a41a17e75ca0c2149f3
      - ElementName: SFX
        ObjectType: 2
        guid: 4c5fd943ea827d4ea7354e84ca413c23
      Path: Master-Mixer Hierarchy\Default Work Unit\Master Audio Bus\SFX
  BankWwu:
  - PhysicalPath: SoundBanks\Default Work Unit.wwu
    PathAndIcons:
    - ElementName: SoundBanks
      ObjectType: 5
      guid: 00000000000000000000000000000000
    - ElementName: Default Work Unit
      ObjectType: 12
      guid: ab4a72828fe1b9448f19d4301f87f689
    ParentPath: SoundBanks\Default Work Unit
    guid: ab4a72828fe1b9448f19d4301f87f689
    GuidInternal: 
    m_lastTime: -8585456056237781927
    List:
    - name: Master
      guid: 5ca8d7819531db40bb147481070d8240
      id: 4056684167
      PathAndIcons:
      - ElementName: SoundBanks
        ObjectType: 5
        guid: 00000000000000000000000000000000
      - ElementName: Default Work Unit
        ObjectType: 12
        guid: ab4a72828fe1b9448f19d4301f87f689
      - ElementName: Master
        ObjectType: 7
        guid: 5ca8d7819531db40bb147481070d8240
      Path: SoundBanks\Default Work Unit\Master
  EventWwu:
  - PhysicalPath: Events\AmbientEvents.wwu
    PathAndIcons:
    - ElementName: Events
      ObjectType: 5
      guid: 00000000000000000000000000000000
    - ElementName: Default Work Unit
      ObjectType: 12
      guid: 00c9f744958a364c88a4a2e36d4584e3
    - ElementName: AmbientEvents
      ObjectType: 12
      guid: e77721fa8b8b8b469747dfeead344a4c
    ParentPath: Events\Default Work Unit\AmbientEvents
    guid: e77721fa8b8b8b469747dfeead344a4c
    GuidInternal: 
    m_lastTime: -8585453272189764422
    List:
    - name: PLAY_ambience_outside
      guid: 198e433a7ea0924bba08c66346cbb52b
      id: 26975710
      PathAndIcons:
      - ElementName: Events
        ObjectType: 5
        guid: 00000000000000000000000000000000
      - ElementName: Default Work Unit
        ObjectType: 12
        guid: 00c9f744958a364c88a4a2e36d4584e3
      - ElementName: AmbientEvents
        ObjectType: 12
        guid: e77721fa8b8b8b469747dfeead344a4c
      - ElementName: PLAY_ambience_outside
        ObjectType: 3
        guid: 198e433a7ea0924bba08c66346cbb52b
      Path: Events\Default Work Unit\AmbientEvents\PLAY_ambience_outside
      maxAttenuation: 0
      maxDuration: -1
      minDuration: -1
    - name: PLAY_room_1_ambient_2d_loop
      guid: 0c8d0af46ef84e44a7221d6b48a3f3eb
      id: 278696632
      PathAndIcons:
      - ElementName: Events
        ObjectType: 5
        guid: 00000000000000000000000000000000
      - ElementName: Default Work Unit
        ObjectType: 12
        guid: 00c9f744958a364c88a4a2e36d4584e3
      - ElementName: AmbientEvents
        ObjectType: 12
        guid: e77721fa8b8b8b469747dfeead344a4c
      - ElementName: PLAY_room_1_ambient_2d_loop
        ObjectType: 3
        guid: 0c8d0af46ef84e44a7221d6b48a3f3eb
      Path: Events\Default Work Unit\AmbientEvents\PLAY_room_1_ambient_2d_loop
      maxAttenuation: 0
      maxDuration: -1
      minDuration: -1
    - name: STOP_room_1_ambient_2d_loop
      guid: 838a4b68ea668a47a86aa18223500e03
      id: 4206558990
      PathAndIcons:
      - ElementName: Events
        ObjectType: 5
        guid: 00000000000000000000000000000000
      - ElementName: Default Work Unit
        ObjectType: 12
        guid: 00c9f744958a364c88a4a2e36d4584e3
      - ElementName: AmbientEvents
        ObjectType: 12
        guid: e77721fa8b8b8b469747dfeead344a4c
      - ElementName: STOP_room_1_ambient_2d_loop
        ObjectType: 3
        guid: 838a4b68ea668a47a86aa18223500e03
      Path: Events\Default Work Unit\AmbientEvents\STOP_room_1_ambient_2d_loop
      maxAttenuation: 0
      maxDuration: 0
      minDuration: 0
  - PhysicalPath: Events\CharacterEvents.wwu
    PathAndIcons:
    - ElementName: Events
      ObjectType: 5
      guid: 00000000000000000000000000000000
    - ElementName: Default Work Unit
      ObjectType: 12
      guid: 00c9f744958a364c88a4a2e36d4584e3
    - ElementName: CharacterEvents
      ObjectType: 12
      guid: 16b31420d34c1647af7055fed9de110a
    ParentPath: Events\Default Work Unit\CharacterEvents
    guid: 16b31420d34c1647af7055fed9de110a
    GuidInternal: 
    m_lastTime: -8585453269622738378
    List:
    - name: PLAY_breathing
      guid: fb0b4c14fb6140428d95ef371a262081
      id: 4093367312
      PathAndIcons:
      - ElementName: Events
        ObjectType: 5
        guid: 00000000000000000000000000000000
      - ElementName: Default Work Unit
        ObjectType: 12
        guid: 00c9f744958a364c88a4a2e36d4584e3
      - ElementName: CharacterEvents
        ObjectType: 12
        guid: 16b31420d34c1647af7055fed9de110a
      - ElementName: PLAY_breathing
        ObjectType: 3
        guid: fb0b4c14fb6140428d95ef371a262081
      Path: Events\Default Work Unit\CharacterEvents\PLAY_breathing
      maxAttenuation: 20
      maxDuration: -1
      minDuration: -1
    - name: PLAY_character_footsteps
      guid: 8fbff6265363d3469fcfb436c4608afa
      id: 3366102827
      PathAndIcons:
      - ElementName: Events
        ObjectType: 5
        guid: 00000000000000000000000000000000
      - ElementName: Default Work Unit
        ObjectType: 12
        guid: 00c9f744958a364c88a4a2e36d4584e3
      - ElementName: CharacterEvents
        ObjectType: 12
        guid: 16b31420d34c1647af7055fed9de110a
      - ElementName: PLAY_character_footsteps
        ObjectType: 3
        guid: 8fbff6265363d3469fcfb436c4608afa
      Path: Events\Default Work Unit\CharacterEvents\PLAY_character_footsteps
      maxAttenuation: 20
      maxDuration: 0.943001
      minDuration: 0.238249
    - name: STOP_Breathing_play_restoration
      guid: b7b34eebef2e7c4f8002ea2b775a3d86
      id: 1863969018
      PathAndIcons:
      - ElementName: Events
        ObjectType: 5
        guid: 00000000000000000000000000000000
      - ElementName: Default Work Unit
        ObjectType: 12
        guid: 00c9f744958a364c88a4a2e36d4584e3
      - ElementName: CharacterEvents
        ObjectType: 12
        guid: 16b31420d34c1647af7055fed9de110a
      - ElementName: STOP_Breathing_play_restoration
        ObjectType: 3
        guid: b7b34eebef2e7c4f8002ea2b775a3d86
      Path: Events\Default Work Unit\CharacterEvents\STOP_Breathing_play_restoration
      maxAttenuation: 20
      maxDuration: -1
      minDuration: -1
  - PhysicalPath: Events\Default Work Unit.wwu
    PathAndIcons:
    - ElementName: Events
      ObjectType: 5
      guid: 00000000000000000000000000000000
    - ElementName: Default Work Unit
      ObjectType: 12
      guid: 00c9f744958a364c88a4a2e36d4584e3
    ParentPath: Events\Default Work Unit
    guid: 00c9f744958a364c88a4a2e36d4584e3
    GuidInternal: 
    m_lastTime: -8585453276594843218
    List: []
  - PhysicalPath: Events\NOTMINE.wwu
    PathAndIcons:
    - ElementName: Events
      ObjectType: 5
      guid: 00000000000000000000000000000000
    - ElementName: NOTMINE
      ObjectType: 12
      guid: d51b647ae0f834408f9997888571b5c7
    ParentPath: Events\NOTMINE
    guid: d51b647ae0f834408f9997888571b5c7
    GuidInternal: 
    m_lastTime: -8585456004819766013
    List:
    - name: ambient
      guid: 4a1470e9b2f0bc41b9560938bc41dd8d
      id: 77978275
      PathAndIcons:
      - ElementName: Events
        ObjectType: 5
        guid: 00000000000000000000000000000000
      - ElementName: NOTMINE
        ObjectType: 12
        guid: d51b647ae0f834408f9997888571b5c7
      - ElementName: Ambient
        ObjectType: 4
        guid: aad7d61d30d3a04a99148551026241ef
      - ElementName: ambient
        ObjectType: 3
        guid: 4a1470e9b2f0bc41b9560938bc41dd8d
      Path: Events\NOTMINE\Ambient\ambient
      maxAttenuation: 0
      maxDuration: -1
      minDuration: -1
    - name: Ambient
      guid: aad7d61d30d3a04a99148551026241ef
      id: 77978275
      PathAndIcons:
      - ElementName: Events
        ObjectType: 5
        guid: 00000000000000000000000000000000
      - ElementName: NOTMINE
        ObjectType: 12
        guid: d51b647ae0f834408f9997888571b5c7
      - ElementName: Ambient
        ObjectType: 4
        guid: aad7d61d30d3a04a99148551026241ef
      Path: Events\NOTMINE\Ambient
      maxAttenuation: 0
      maxDuration: -1
      minDuration: -1
    - name: breath
      guid: 713f94bfac489a4d8aebaaa65c933ea1
      id: 1326786195
      PathAndIcons:
      - ElementName: Events
        ObjectType: 5
        guid: 00000000000000000000000000000000
      - ElementName: NOTMINE
        ObjectType: 12
        guid: d51b647ae0f834408f9997888571b5c7
      - ElementName: Character
        ObjectType: 4
        guid: ef7405747815644e9c9f6c295a387b26
      - ElementName: breath
        ObjectType: 3
        guid: 713f94bfac489a4d8aebaaa65c933ea1
      Path: Events\NOTMINE\Character\breath
      maxAttenuation: 0
      maxDuration: -1
      minDuration: -1
    - name: Character
      guid: ef7405747815644e9c9f6c295a387b26
      id: 436743010
      PathAndIcons:
      - ElementName: Events
        ObjectType: 5
        guid: 00000000000000000000000000000000
      - ElementName: NOTMINE
        ObjectType: 12
        guid: d51b647ae0f834408f9997888571b5c7
      - ElementName: Character
        ObjectType: 4
        guid: ef7405747815644e9c9f6c295a387b26
      Path: Events\NOTMINE\Character
      maxAttenuation: 0
      maxDuration: -1
      minDuration: -1
    - name: footstep
      guid: f4a5a2220d9a9d41af206b695ea5f984
      id: 1866025847
      PathAndIcons:
      - ElementName: Events
        ObjectType: 5
        guid: 00000000000000000000000000000000
      - ElementName: NOTMINE
        ObjectType: 12
        guid: d51b647ae0f834408f9997888571b5c7
      - ElementName: Character
        ObjectType: 4
        guid: ef7405747815644e9c9f6c295a387b26
      - ElementName: footstep
        ObjectType: 3
        guid: f4a5a2220d9a9d41af206b695ea5f984
      Path: Events\NOTMINE\Character\footstep
      maxAttenuation: 0
      maxDuration: 0
      minDuration: 0
    - name: insect
      guid: cdf5675e9ec67c4a9c722979279409a6
      id: 3534600765
      PathAndIcons:
      - ElementName: Events
        ObjectType: 5
        guid: 00000000000000000000000000000000
      - ElementName: NOTMINE
        ObjectType: 12
        guid: d51b647ae0f834408f9997888571b5c7
      - ElementName: Ambient
        ObjectType: 4
        guid: aad7d61d30d3a04a99148551026241ef
      - ElementName: insect
        ObjectType: 3
        guid: cdf5675e9ec67c4a9c722979279409a6
      Path: Events\NOTMINE\Ambient\insect
      maxAttenuation: 15
      maxDuration: -1
      minDuration: -1
  RtpcWwu:
  - PhysicalPath: Game Parameters\Default Work Unit.wwu
    PathAndIcons:
    - ElementName: Game Parameters
      ObjectType: 5
      guid: 00000000000000000000000000000000
    - ElementName: Default Work Unit
      ObjectType: 12
      guid: a1881454eea4ff4bae05bc1529bd3ed0
    ParentPath: Game Parameters\Default Work Unit
    guid: a1881454eea4ff4bae05bc1529bd3ed0
    GuidInternal: 
    m_lastTime: -8585453555174310412
    List:
    - name: RTPC_ext_CameraHeight
      guid: 34f0467c38c0fc40a4f7afb2c424a2b7
      id: 3812846179
      PathAndIcons:
      - ElementName: Game Parameters
        ObjectType: 5
        guid: 00000000000000000000000000000000
      - ElementName: Default Work Unit
        ObjectType: 12
        guid: a1881454eea4ff4bae05bc1529bd3ed0
      - ElementName: RTPC_ext_CameraHeight
        ObjectType: 13
        guid: 34f0467c38c0fc40a4f7afb2c424a2b7
      Path: Game Parameters\Default Work Unit\RTPC_ext_CameraHeight
    - name: RTPC_ext_stamina
      guid: 0948c8e00d63444f93478b464b0f8a44
      id: 4235028358
      PathAndIcons:
      - ElementName: Game Parameters
        ObjectType: 5
        guid: 00000000000000000000000000000000
      - ElementName: Default Work Unit
        ObjectType: 12
        guid: a1881454eea4ff4bae05bc1529bd3ed0
      - ElementName: RTPC_ext_stamina
        ObjectType: 13
        guid: 0948c8e00d63444f93478b464b0f8a44
      Path: Game Parameters\Default Work Unit\RTPC_ext_stamina
  - PhysicalPath: Game Parameters\NOMINE.wwu
    PathAndIcons:
    - ElementName: Game Parameters
      ObjectType: 5
      guid: 00000000000000000000000000000000
    - ElementName: NOMINE
      ObjectType: 12
      guid: bdfa9e301090fb4fa98ab6c31f1097d4
    ParentPath: Game Parameters\NOMINE
    guid: bdfa9e301090fb4fa98ab6c31f1097d4
    GuidInternal: 
    m_lastTime: -8585456003937450117
    List:
    - name: Azimuth
      guid: 1b0dc0aeed427f4193f691c1331efab7
      id: 1437246667
      PathAndIcons:
      - ElementName: Game Parameters
        ObjectType: 5
        guid: 00000000000000000000000000000000
      - ElementName: NOMINE
        ObjectType: 12
        guid: bdfa9e301090fb4fa98ab6c31f1097d4
      - ElementName: Azimuth
        ObjectType: 13
        guid: 1b0dc0aeed427f4193f691c1331efab7
      Path: Game Parameters\NOMINE\Azimuth
    - name: Stamina
      guid: 0c2f9d48eaae624ab35bc4cb55898f87
      id: 1771880628
      PathAndIcons:
      - ElementName: Game Parameters
        ObjectType: 5
        guid: 00000000000000000000000000000000
      - ElementName: NOMINE
        ObjectType: 12
        guid: bdfa9e301090fb4fa98ab6c31f1097d4
      - ElementName: Stamina
        ObjectType: 13
        guid: 0c2f9d48eaae624ab35bc4cb55898f87
      Path: Game Parameters\NOMINE\Stamina
  StateWwu:
  - PhysicalPath: States\Default Work Unit.wwu
    PathAndIcons:
    - ElementName: States
      ObjectType: 5
      guid: 00000000000000000000000000000000
    - ElementName: Default Work Unit
      ObjectType: 12
      guid: b5a12024a8e8f548aaf9e505647fb260
    ParentPath: States\Default Work Unit
    guid: b5a12024a8e8f548aaf9e505647fb260
    GuidInternal: 
    m_lastTime: -8585453252221933942
    List:
    - name: STATE_ambient
      guid: 3c8719ca698a464b9baa4d858eab141e
      id: 2907071985
      PathAndIcons:
      - ElementName: States
        ObjectType: 5
        guid: 00000000000000000000000000000000
      - ElementName: Default Work Unit
        ObjectType: 12
        guid: b5a12024a8e8f548aaf9e505647fb260
      - ElementName: STATE_ambient
        ObjectType: 9
        guid: 3c8719ca698a464b9baa4d858eab141e
      Path: States\Default Work Unit\STATE_ambient
      values:
      - name: Indoor
        guid: 9b100ba89266ee47bb2f7e71ea40e222
        id: 340398852
        PathAndIcons:
        - ElementName: States
          ObjectType: 5
          guid: 00000000000000000000000000000000
        - ElementName: Default Work Unit
          ObjectType: 12
          guid: b5a12024a8e8f548aaf9e505647fb260
        - ElementName: STATE_ambient
          ObjectType: 9
          guid: 3c8719ca698a464b9baa4d858eab141e
        - ElementName: Indoor
          ObjectType: 8
          guid: 9b100ba89266ee47bb2f7e71ea40e222
      - name: None
        guid: 86e7972df0792744afa79a822e2e7d5e
        id: 748895195
        PathAndIcons:
        - ElementName: States
          ObjectType: 5
          guid: 00000000000000000000000000000000
        - ElementName: Default Work Unit
          ObjectType: 12
          guid: b5a12024a8e8f548aaf9e505647fb260
        - ElementName: STATE_ambient
          ObjectType: 9
          guid: 3c8719ca698a464b9baa4d858eab141e
        - ElementName: None
          ObjectType: 8
          guid: 86e7972df0792744afa79a822e2e7d5e
      - name: Outdoor
        guid: bc787ee04d464b4d88dd088802b9d156
        id: 144697359
        PathAndIcons:
        - ElementName: States
          ObjectType: 5
          guid: 00000000000000000000000000000000
        - ElementName: Default Work Unit
          ObjectType: 12
          guid: b5a12024a8e8f548aaf9e505647fb260
        - ElementName: STATE_ambient
          ObjectType: 9
          guid: 3c8719ca698a464b9baa4d858eab141e
        - ElementName: Outdoor
          ObjectType: 8
          guid: bc787ee04d464b4d88dd088802b9d156
      ValueGuids: []
      ValueIcons: []
      valuesInternal: []
    - name: STATE_room_01
      guid: f8b3536aebc8aa4d87420f143070a273
      id: 2240184452
      PathAndIcons:
      - ElementName: States
        ObjectType: 5
        guid: 00000000000000000000000000000000
      - ElementName: Default Work Unit
        ObjectType: 12
        guid: b5a12024a8e8f548aaf9e505647fb260
      - ElementName: STATE_room_01
        ObjectType: 9
        guid: f8b3536aebc8aa4d87420f143070a273
      Path: States\Default Work Unit\STATE_room_01
      values:
      - name: Inside
        guid: 4b50c1b86b663e4fba1dfdf75e3f36aa
        id: 3553349781
        PathAndIcons:
        - ElementName: States
          ObjectType: 5
          guid: 00000000000000000000000000000000
        - ElementName: Default Work Unit
          ObjectType: 12
          guid: b5a12024a8e8f548aaf9e505647fb260
        - ElementName: STATE_room_01
          ObjectType: 9
          guid: f8b3536aebc8aa4d87420f143070a273
        - ElementName: Inside
          ObjectType: 8
          guid: 4b50c1b86b663e4fba1dfdf75e3f36aa
      - name: None
        guid: 36bf7140bffad24eae459d07e0168aa1
        id: 748895195
        PathAndIcons:
        - ElementName: States
          ObjectType: 5
          guid: 00000000000000000000000000000000
        - ElementName: Default Work Unit
          ObjectType: 12
          guid: b5a12024a8e8f548aaf9e505647fb260
        - ElementName: STATE_room_01
          ObjectType: 9
          guid: f8b3536aebc8aa4d87420f143070a273
        - ElementName: None
          ObjectType: 8
          guid: 36bf7140bffad24eae459d07e0168aa1
      - name: Outside
        guid: 911980d7a5366e438e8cb0d420260efe
        id: 438105790
        PathAndIcons:
        - ElementName: States
          ObjectType: 5
          guid: 00000000000000000000000000000000
        - ElementName: Default Work Unit
          ObjectType: 12
          guid: b5a12024a8e8f548aaf9e505647fb260
        - ElementName: STATE_room_01
          ObjectType: 9
          guid: f8b3536aebc8aa4d87420f143070a273
        - ElementName: Outside
          ObjectType: 8
          guid: 911980d7a5366e438e8cb0d420260efe
      ValueGuids: []
      ValueIcons: []
      valuesInternal: []
  - PhysicalPath: States\NOMINE.wwu
    PathAndIcons:
    - ElementName: States
      ObjectType: 5
      guid: 00000000000000000000000000000000
    - ElementName: Default Work Unit
      ObjectType: 12
      guid: b5a12024a8e8f548aaf9e505647fb260
    - ElementName: NOMINE
      ObjectType: 12
      guid: 93f734c15881c8448606778583ab2132
    ParentPath: States\Default Work Unit\NOMINE
    guid: 93f734c15881c8448606778583ab2132
    GuidInternal: 
    m_lastTime: -8585456004069777339
    List:
    - name: ambient
      guid: 7e189734f0b7c444ae670f8e9b88556b
      id: 77978275
      PathAndIcons:
      - ElementName: States
        ObjectType: 5
        guid: 00000000000000000000000000000000
      - ElementName: Default Work Unit
        ObjectType: 12
        guid: b5a12024a8e8f548aaf9e505647fb260
      - ElementName: NOMINE
        ObjectType: 12
        guid: 93f734c15881c8448606778583ab2132
      - ElementName: ambient
        ObjectType: 9
        guid: 7e189734f0b7c444ae670f8e9b88556b
      Path: States\Default Work Unit\NOMINE\ambient
      values:
      - name: indoor
        guid: 45e1320582cba64eb4914e1e3b32dbe0
        id: 340398852
        PathAndIcons:
        - ElementName: States
          ObjectType: 5
          guid: 00000000000000000000000000000000
        - ElementName: Default Work Unit
          ObjectType: 12
          guid: b5a12024a8e8f548aaf9e505647fb260
        - ElementName: NOMINE
          ObjectType: 12
          guid: 93f734c15881c8448606778583ab2132
        - ElementName: ambient
          ObjectType: 9
          guid: 7e189734f0b7c444ae670f8e9b88556b
        - ElementName: indoor
          ObjectType: 8
          guid: 45e1320582cba64eb4914e1e3b32dbe0
      - name: None
        guid: d92a5a4d16565c498c80093b7d4eaa64
        id: 748895195
        PathAndIcons:
        - ElementName: States
          ObjectType: 5
          guid: 00000000000000000000000000000000
        - ElementName: Default Work Unit
          ObjectType: 12
          guid: b5a12024a8e8f548aaf9e505647fb260
        - ElementName: NOMINE
          ObjectType: 12
          guid: 93f734c15881c8448606778583ab2132
        - ElementName: ambient
          ObjectType: 9
          guid: 7e189734f0b7c444ae670f8e9b88556b
        - ElementName: None
          ObjectType: 8
          guid: d92a5a4d16565c498c80093b7d4eaa64
      - name: outdoor
        guid: fda853800fcf604eaceea4daffe3beea
        id: 144697359
        PathAndIcons:
        - ElementName: States
          ObjectType: 5
          guid: 00000000000000000000000000000000
        - ElementName: Default Work Unit
          ObjectType: 12
          guid: b5a12024a8e8f548aaf9e505647fb260
        - ElementName: NOMINE
          ObjectType: 12
          guid: 93f734c15881c8448606778583ab2132
        - ElementName: ambient
          ObjectType: 9
          guid: 7e189734f0b7c444ae670f8e9b88556b
        - ElementName: outdoor
          ObjectType: 8
          guid: fda853800fcf604eaceea4daffe3beea
      ValueGuids: []
      ValueIcons: []
      valuesInternal: []
  SwitchWwu:
  - PhysicalPath: Switches\Default Work Unit.wwu
    PathAndIcons:
    - ElementName: Switches
      ObjectType: 5
      guid: 00000000000000000000000000000000
    - ElementName: Default Work Unit
      ObjectType: 12
      guid: 307413cff3f33649b6caf22371e4e3c8
    ParentPath: Switches\Default Work Unit
    guid: 307413cff3f33649b6caf22371e4e3c8
    GuidInternal: 
    m_lastTime: -8585453559428676599
    List:
    - name: SWITCH_Locomotion
      guid: d62ef91df1722d43aaec43185bf4a028
      id: 1151814979
      PathAndIcons:
      - ElementName: Switches
        ObjectType: 5
        guid: 00000000000000000000000000000000
      - ElementName: Default Work Unit
        ObjectType: 12
        guid: 307413cff3f33649b6caf22371e4e3c8
      - ElementName: SWITCH_Locomotion
        ObjectType: 11
        guid: d62ef91df1722d43aaec43185bf4a028
      Path: Switches\Default Work Unit\SWITCH_Locomotion
      values:
      - name: Idle
        guid: 8da3749eee5f084cbb46fca9aa3679e9
        id: 1874288895
        PathAndIcons:
        - ElementName: Switches
          ObjectType: 5
          guid: 00000000000000000000000000000000
        - ElementName: Default Work Unit
          ObjectType: 12
          guid: 307413cff3f33649b6caf22371e4e3c8
        - ElementName: SWITCH_Locomotion
          ObjectType: 11
          guid: d62ef91df1722d43aaec43185bf4a028
        - ElementName: Idle
          ObjectType: 10
          guid: 8da3749eee5f084cbb46fca9aa3679e9
      - name: Running
        guid: 77c41a28304bd246a4972bb70d54185f
        id: 3863236874
        PathAndIcons:
        - ElementName: Switches
          ObjectType: 5
          guid: 00000000000000000000000000000000
        - ElementName: Default Work Unit
          ObjectType: 12
          guid: 307413cff3f33649b6caf22371e4e3c8
        - ElementName: SWITCH_Locomotion
          ObjectType: 11
          guid: d62ef91df1722d43aaec43185bf4a028
        - ElementName: Running
          ObjectType: 10
          guid: 77c41a28304bd246a4972bb70d54185f
      - name: Walking
        guid: 35904761e465b04bb67f662366dab1f5
        id: 340271938
        PathAndIcons:
        - ElementName: Switches
          ObjectType: 5
          guid: 00000000000000000000000000000000
        - ElementName: Default Work Unit
          ObjectType: 12
          guid: 307413cff3f33649b6caf22371e4e3c8
        - ElementName: SWITCH_Locomotion
          ObjectType: 11
          guid: d62ef91df1722d43aaec43185bf4a028
        - ElementName: Walking
          ObjectType: 10
          guid: 35904761e465b04bb67f662366dab1f5
      ValueGuids: []
      ValueIcons: []
      valuesInternal: []
    - name: SWITCH_Surface
      guid: 4d9054a777cd294e9dc907596accdc72
      id: 4244890825
      PathAndIcons:
      - ElementName: Switches
        ObjectType: 5
        guid: 00000000000000000000000000000000
      - ElementName: Default Work Unit
        ObjectType: 12
        guid: 307413cff3f33649b6caf22371e4e3c8
      - ElementName: SWITCH_Surface
        ObjectType: 11
        guid: 4d9054a777cd294e9dc907596accdc72
      Path: Switches\Default Work Unit\SWITCH_Surface
      values:
      - name: Gravel
        guid: 29807e644db67c4589901ead29542953
        id: 2185786256
        PathAndIcons:
        - ElementName: Switches
          ObjectType: 5
          guid: 00000000000000000000000000000000
        - ElementName: Default Work Unit
          ObjectType: 12
          guid: 307413cff3f33649b6caf22371e4e3c8
        - ElementName: SWITCH_Surface
          ObjectType: 11
          guid: 4d9054a777cd294e9dc907596accdc72
        - ElementName: Gravel
          ObjectType: 10
          guid: 29807e644db67c4589901ead29542953
      - name: Leaves
        guid: 504281a57a5da34c87039af7a7639d9a
        id: 582824249
        PathAndIcons:
        - ElementName: Switches
          ObjectType: 5
          guid: 00000000000000000000000000000000
        - ElementName: Default Work Unit
          ObjectType: 12
          guid: 307413cff3f33649b6caf22371e4e3c8
        - ElementName: SWITCH_Surface
          ObjectType: 11
          guid: 4d9054a777cd294e9dc907596accdc72
        - ElementName: Leaves
          ObjectType: 10
          guid: 504281a57a5da34c87039af7a7639d9a
      - name: Metal
        guid: 308647c3ecc2dd4a93bc327587ccae2d
        id: 2473969246
        PathAndIcons:
        - ElementName: Switches
          ObjectType: 5
          guid: 00000000000000000000000000000000
        - ElementName: Default Work Unit
          ObjectType: 12
          guid: 307413cff3f33649b6caf22371e4e3c8
        - ElementName: SWITCH_Surface
          ObjectType: 11
          guid: 4d9054a777cd294e9dc907596accdc72
        - ElementName: Metal
          ObjectType: 10
          guid: 308647c3ecc2dd4a93bc327587ccae2d
      ValueGuids: []
      ValueIcons: []
      valuesInternal: []
  - PhysicalPath: Switches\NOTMINE.wwu
    PathAndIcons:
    - ElementName: Switches
      ObjectType: 5
      guid: 00000000000000000000000000000000
    - ElementName: NOTMINE
      ObjectType: 12
      guid: 32522474ea9de34e8140b260733edf05
    ParentPath: Switches\NOTMINE
    guid: 32522474ea9de34e8140b260733edf05
    GuidInternal: 
    m_lastTime: -8585456004372572281
    List:
    - name: locomotion
      guid: 15eeb28118f14d46a4e98a6977e847dc
      id: 556887514
      PathAndIcons:
      - ElementName: Switches
        ObjectType: 5
        guid: 00000000000000000000000000000000
      - ElementName: NOTMINE
        ObjectType: 12
        guid: 32522474ea9de34e8140b260733edf05
      - ElementName: locomotion
        ObjectType: 11
        guid: 15eeb28118f14d46a4e98a6977e847dc
      Path: Switches\NOTMINE\locomotion
      values:
      - name: running
        guid: feb3655ec4f1c84e99b97cf6461d0417
        id: 3863236874
        PathAndIcons:
        - ElementName: Switches
          ObjectType: 5
          guid: 00000000000000000000000000000000
        - ElementName: NOTMINE
          ObjectType: 12
          guid: 32522474ea9de34e8140b260733edf05
        - ElementName: locomotion
          ObjectType: 11
          guid: 15eeb28118f14d46a4e98a6977e847dc
        - ElementName: running
          ObjectType: 10
          guid: feb3655ec4f1c84e99b97cf6461d0417
      - name: walking
        guid: f5de33e5fca7314497370eafe90ea69c
        id: 340271938
        PathAndIcons:
        - ElementName: Switches
          ObjectType: 5
          guid: 00000000000000000000000000000000
        - ElementName: NOTMINE
          ObjectType: 12
          guid: 32522474ea9de34e8140b260733edf05
        - ElementName: locomotion
          ObjectType: 11
          guid: 15eeb28118f14d46a4e98a6977e847dc
        - ElementName: walking
          ObjectType: 10
          guid: f5de33e5fca7314497370eafe90ea69c
      ValueGuids: []
      ValueIcons: []
      valuesInternal: []
    - name: surface
      guid: f400b0a254b2f14c89ee6cf1e946122a
      id: 1834394558
      PathAndIcons:
      - ElementName: Switches
        ObjectType: 5
        guid: 00000000000000000000000000000000
      - ElementName: NOTMINE
        ObjectType: 12
        guid: 32522474ea9de34e8140b260733edf05
      - ElementName: surface
        ObjectType: 11
        guid: f400b0a254b2f14c89ee6cf1e946122a
      Path: Switches\NOTMINE\surface
      values:
      - name: dirt
        guid: b139e87017b0e24fb30afa7a48c29d97
        id: 2195636714
        PathAndIcons:
        - ElementName: Switches
          ObjectType: 5
          guid: 00000000000000000000000000000000
        - ElementName: NOTMINE
          ObjectType: 12
          guid: 32522474ea9de34e8140b260733edf05
        - ElementName: surface
          ObjectType: 11
          guid: f400b0a254b2f14c89ee6cf1e946122a
        - ElementName: dirt
          ObjectType: 10
          guid: b139e87017b0e24fb30afa7a48c29d97
      - name: grass
        guid: 99f6254ea2a8214ea324c3dcce14d02a
        id: 4248645337
        PathAndIcons:
        - ElementName: Switches
          ObjectType: 5
          guid: 00000000000000000000000000000000
        - ElementName: NOTMINE
          ObjectType: 12
          guid: 32522474ea9de34e8140b260733edf05
        - ElementName: surface
          ObjectType: 11
          guid: f400b0a254b2f14c89ee6cf1e946122a
        - ElementName: grass
          ObjectType: 10
          guid: 99f6254ea2a8214ea324c3dcce14d02a
      - name: leaves
        guid: d2a04afc93c7324a8f5223d6be225808
        id: 582824249
        PathAndIcons:
        - ElementName: Switches
          ObjectType: 5
          guid: 00000000000000000000000000000000
        - ElementName: NOTMINE
          ObjectType: 12
          guid: 32522474ea9de34e8140b260733edf05
        - ElementName: surface
          ObjectType: 11
          guid: f400b0a254b2f14c89ee6cf1e946122a
        - ElementName: leaves
          ObjectType: 10
          guid: d2a04afc93c7324a8f5223d6be225808
      - name: stone
        guid: b98cc3953943ba4b92a4cdf1ac92bb01
        id: 1216965916
        PathAndIcons:
        - ElementName: Switches
          ObjectType: 5
          guid: 00000000000000000000000000000000
        - ElementName: NOTMINE
          ObjectType: 12
          guid: 32522474ea9de34e8140b260733edf05
        - ElementName: surface
          ObjectType: 11
          guid: f400b0a254b2f14c89ee6cf1e946122a
        - ElementName: stone
          ObjectType: 10
          guid: b98cc3953943ba4b92a4cdf1ac92bb01
      ValueGuids: []
      ValueIcons: []
      valuesInternal: []
  TriggerWwu:
  - PhysicalPath: Triggers\Default Work Unit.wwu
    PathAndIcons:
    - ElementName: Triggers
      ObjectType: 5
      guid: 00000000000000000000000000000000
    - ElementName: Default Work Unit
      ObjectType: 12
      guid: 6ceb54920763f740b46935894e0d8bbe
    ParentPath: Triggers\Default Work Unit
    guid: 6ceb54920763f740b46935894e0d8bbe
    GuidInternal: 
    m_lastTime: -8585456056790496958
    List: []
  ExpandedFileSystemItemIds: 
  ExpandedWaapiItemIds: 010000000600000007000000080000000d0000000e00000011000000c4cd0800
  AutoSyncSelection: 0
  autoPopulateEnabled: 1
  currentDataSource: 0
  CurrentPluginConfig: 
